﻿{
  "skladnici":
[
  {
    "prac": "1",
    "id": "Mon",
    "heslo": "Mat",
    "skladnik": "Maťátková"
  },
  {
    "prac": "2",
    "id": "Hon",
    "heslo": "Pan",
    "skladnik": "Panuš"
  },
  {
    "prac": "3",
    "id": "Iv",
    "heslo": "Vyk",
    "skladnik": "Vykydal"
  }
]
}